{
	"ielts": "https://upload.wikimedia.org/wikipedia/commons/7/7f/IELTS_logo.svg",
	"docker": "https://upload.wikimedia.org/wikipedia/commons/4/4e/Docker_%28container_engine%29_logo.svg",
	"ansible": "https://upload.wikimedia.org/wikipedia/commons/thumb/2/24/Ansible_logo.svg/200px-Ansible_logo.svg.png",
	"cisco": "https://upload.wikimedia.org/wikipedia/commons/0/08/Cisco_logo_blue_2016.svg",
	"vmware": "https://upload.wikimedia.org/wikipedia/commons/thumb/9/9a/Vmware.svg/190px-Vmware.svg.png",
	"azure": "https://upload.wikimedia.org/wikipedia/commons/a/a8/Microsoft_Azure_Logo.svg",
	"ansible_cert": "certificates/AUTOMATION_WITH_ANSIBLE-CERTIFICATE.jpg",
	"docker_cert": "certificates/DOCKER-CERTIFICATE.jpg",
	"ccnax_cert": "certificates/INTERCONNECTING_CISCO_NETWORK_ACCELERATED-CERTIFICATE.jpg",
	"vmware_icm_v6_outline": "certificates/VMWARE_VSPHERE_INSTALL_CONFIGURE_MANAGE_V6-COURSE_PROGRAM.pdf",
	"vmware_icm_v6_cert": "certificates/VMWARE_VSPHERE_INSTALL_CONFIGURE_MANAGE_V6-CERTIFICATE.jpg",
	"vmware_os_v6_outline": "certificates/VMWARE_VSPHERE_OPTIMIZE_AND_SCALE_V6-COURSE_PROGRAM.pdf",
	"vmware_os_v6_cert": "certificates/VMWARE_VSPHERE_OPTIMIZE_AND_SCALE_V6-CERTIFICATE.jpg",
	"vmware_om_v6_outline": "certificates/VMWARE_VREALIZE_OPERATIONS_MANAGER_FOR_OPERATORS_V6.0-COURSE_PROGRAM.pdf",
	"vmware_om_v6_cert": "certificates/VMWARE_VREALIZE_OPERATIONS_MANAGER_FOR_OPERATORS_V6.0-CERTIFICATE.jpg",
	"azure_cert": "certificates/azure_cert.jpg",
	"azure_outline": "certificates/azure_program.pdf"
}